46005050000,60004010000,laulmine,1
46006060000,50001020000,eesti keel,3
46006060000,50001040000,eesti keel,4
46005050000,50001010000,laulmine,1
46006060000,60007010000,eesti keel,4
46006060000,60002010000,eesti keel,3
46006060000,60002010000,eesti keel,3
46006060000,50001010000,eesti keel,2
36003030000,50001030000,matemaatika,1
46005050000,60005010000,laulmine,2
46005050000,50001050000,laulmine,3
46006060000,50001050000,eesti keel,3
46005050000,60006010000,laulmine,5
46006060000,60004010000,eesti keel,4
46006060000,60003010000,eesti keel,5
46005050000,60005010000,laulmine,2
36004040000,60004010000,joonistamine,3
46005050000,60006010000,laulmine,4
46006060000,60002010000,eesti keel,5
36004040000,60003010000,joonistamine,5
46006060000,60006010000,eesti keel,1
36003030000,60002010000,matemaatika,3
46005050000,60005010000,laulmine,5
36004040000,50001030000,joonistamine,5
36003030000,50001040000,matemaatika,3
36004040000,50001010000,joonistamine,5
46005050000,50001040000,laulmine,4
36003030000,50001040000,matemaatika,5
46005050000,60004010000,laulmine,5
36004040000,50001030000,joonistamine,3
36004040000,60004010000,joonistamine,3
36003030000,60006010000,matemaatika,5
36003030000,50001010000,matemaatika,5
36003030000,60003010000,matemaatika,3
46005050000,60003010000,laulmine,5
46006060000,50001040000,eesti keel,5
46006060000,60003010000,eesti keel,4
46005050000,60002010000,laulmine,2
36003030000,50001020000,matemaatika,1
36004040000,50001010000,joonistamine,4
46005050000,50001030000,laulmine,2
36003030000,50001010000,matemaatika,3
36004040000,60006010000,joonistamine,3
36003030000,60002010000,matemaatika,3
36004040000,60003010000,joonistamine,4
46006060000,50001060000,eesti keel,3
46005050000,50001050000,laulmine,3
46005050000,60007010000,laulmine,4
46005050000,50001010000,laulmine,1
46006060000,50001050000,eesti keel,3
46006060000,50001030000,eesti keel,1
46005050000,60006010000,laulmine,4
46006060000,50001050000,eesti keel,2
46006060000,50001030000,eesti keel,1
36003030000,60006010000,matemaatika,1
46006060000,50001030000,eesti keel,3
36004040000,50001050000,joonistamine,5
36004040000,50001010000,joonistamine,5
36003030000,50001050000,matemaatika,3
46005050000,60002010000,laulmine,2
46006060000,60004010000,eesti keel,4
36004040000,50001060000,joonistamine,3
36004040000,50001020000,joonistamine,1
46006060000,60007010000,eesti keel,1
46006060000,60003010000,eesti keel,1
36003030000,60005010000,matemaatika,1
36003030000,60002010000,matemaatika,3
36003030000,50001010000,matemaatika,2
46005050000,60005010000,laulmine,4
46006060000,50001060000,eesti keel,2
36004040000,50001010000,joonistamine,5
46005050000,50001010000,laulmine,4
46006060000,50001030000,eesti keel,3
46005050000,50001020000,laulmine,2
46006060000,50001020000,eesti keel,4
46005050000,60007010000,laulmine,5
36004040000,60006010000,joonistamine,1
36004040000,60007010000,joonistamine,3
46005050000,50001020000,laulmine,4
36004040000,60004010000,joonistamine,4
36004040000,60005010000,joonistamine,3
46006060000,50001040000,eesti keel,1
46006060000,50001040000,eesti keel,2
36004040000,50001020000,joonistamine,3
36004040000,60005010000,joonistamine,1
46006060000,60005010000,eesti keel,1
46006060000,50001020000,eesti keel,2
36003030000,50001050000,matemaatika,4
36004040000,50001010000,joonistamine,3
46006060000,60003010000,eesti keel,3
46006060000,50001060000,eesti keel,3
46005050000,60003010000,laulmine,3
36004040000,50001040000,joonistamine,4
36004040000,50001010000,joonistamine,3
46006060000,60003010000,eesti keel,5
36003030000,60006010000,matemaatika,5
36004040000,60002010000,joonistamine,1
46006060000,50001060000,eesti keel,3
36004040000,50001050000,joonistamine,1
36004040000,60007010000,joonistamine,2
36003030000,50001030000,matemaatika,2
46006060000,60004010000,eesti keel,5
36004040000,50001040000,joonistamine,1
