46005050000, Maali Murakas, 60002010000, 60003010000
36004040000, Riho Raasukas, 60002010000, 50001010000
37707070000, Siim Sulane, 60005010000
38808080000, Toomas Tubli, 60007010000
48808080000, Tiiu Tubli, 60007010000